<?xml version="1.0" encoding="utf-8"?>
<!-- Generator: Adobe Illustrator 16.0.0, SVG Export Plug-In . SVG Version: 6.00 Build 0)  -->
<!DOCTYPE svg PUBLIC "-//W3C//DTD SVG 1.1//EN" "http://www.w3.org/Graphics/SVG/1.1/DTD/svg11.dtd">
<svg version="1.1" id="Calque_1" xmlns="http://www.w3.org/2000/svg" xmlns:xlink="http://www.w3.org/1999/xlink" x="0px" y="0px"
	 width="256.051px" height="256.049px" viewBox="117 56.269 256.051 256.049" enable-background="new 117 56.269 256.051 256.049"
	 xml:space="preserve">
<g display="none">
	<g display="inline">
		<path d="M0,162c0,51.021,26.536,95.843,66.558,121.422C42.301,253.739,27,210.348,27,162c0-48.347,15.301-91.739,39.558-121.422
			C26.536,66.157,0,110.979,0,162z M221.442,40.579C245.699,70.261,261,113.653,261,162c0,48.348-15.301,91.739-39.558,121.422
			C261.464,257.843,288,213.021,288,162C288,110.979,261.464,66.158,221.442,40.579z"/>
	</g>
</g>
<rect x="36" y="18" display="none" fill="none" width="179.481" height="203.667"/>
<path display="none" d="M143.261,18c0,0,2.31,30.513,6.892,51.03c3.827,17.14,17.154,34.435,33.287,53.964
	c25.077,30.354,32.261,50.517,32.261,86.517c0,81-70.094,94.144-72.439,96.489c0,0-65.842-78.893-62.668-155.438
	C83.188,87.949,143.261,18,143.261,18"/>
<g display="none">
	<g display="inline">
		<path d="M192.222,113.994c5.917,7.163,10.827,13.755,14.892,20.125c5.261-7.366,8.367-16.377,8.367-26.12
			c0-24.853-20.146-45-45-45c-3.583,0-7.064,0.431-10.405,1.223C164.973,80.002,177.402,96.055,192.222,113.994z"/>
	</g>
</g>
<g>
	<g>
		<path d="M246.534,149.879c-18.473,3.771-30.98,11.483-39.399,20.751c7.854,1.947,15.13,5.349,21.538,9.896
			c11.245-5.603,25.749-8.252,44.406-4.999c50.77,8.853,75.076-30.629,84.447-52.386c-12.907-23.696-33.085-42.857-57.535-54.499
			C302.188,85.62,304.117,138.126,246.534,149.879z M373.008,181.011c-13.45,17.613-42.614,43.888-86.6,21.298
			c-16.845-8.65-31.479-10.433-43.88-8.427c4.213,5.503,7.546,11.71,9.807,18.415c12.421,2.18,25.711,8.702,38.811,22.516
			c20.566,21.688,41.608,25.422,59.013,22.545c14.427-20.721,22.893-45.901,22.893-73.063
			C373.05,183.196,373.036,182.103,373.008,181.011z M285.862,264.256c-8.361-17.003-19.051-27.167-30.206-32.954
			c0.011,0.484,0.036,0.966,0.036,1.451c0,5.658-0.741,11.142-2.119,16.367c9.418,8.428,17.271,21.017,21.076,39.726
			c1.422,6.987,3.416,13.109,5.836,18.494c10.966-3.154,21.328-7.73,30.872-13.523C301.841,287.979,292.94,278.652,285.862,264.256z
			 M187.925,168.858c5.283-11.356,14.934-22.442,31.457-31.536c42.777-23.545,39.524-60.432,33.53-80.804
			c-2.61-0.159-5.238-0.249-7.888-0.249C174.319,56.27,117,113.588,117,184.294c0,18.28,3.84,35.661,10.743,51.394
			c-0.044-0.974-0.074-1.949-0.074-2.935C127.669,198.661,154.322,170.804,187.925,168.858z M177.885,92.621
			c10.456-10.95,26.04-13.04,34.804-4.668c1.43,1.365,2.584,2.927,3.479,4.628c-3.031,10.364-10.316,20.888-25.354,29.165
			c-4.841,2.664-8.872,5.561-12.222,8.61c-1.357-0.742-2.627-1.655-3.776-2.753C166.05,119.232,167.424,103.57,177.885,92.621z
			 M191.681,296.766c-3.062,0-6.069-0.229-9.017-0.646c18.454,10.313,39.718,16.198,62.36,16.198c3.186,0,6.343-0.119,9.471-0.35
			c0.029-0.316,0.048-0.626,0.08-0.945c1.947-19.183-1.904-33.633-8.51-44.516C234.769,284.669,214.644,296.766,191.681,296.766z"/>
	</g>
</g>
</svg>
