<?xml version="1.0" encoding="utf-8"?>
<!-- Generator: Adobe Illustrator 12.0.0, SVG Export Plug-In . SVG Version: 6.00 Build 51448)  -->
<!DOCTYPE svg PUBLIC "-//W3C//DTD SVG 1.1//EN" "http://www.w3.org/Graphics/SVG/1.1/DTD/svg11.dtd" [
	<!ENTITY ns_svg "http://www.w3.org/2000/svg">
	<!ENTITY ns_xlink "http://www.w3.org/1999/xlink">
]>
<svg  version="1.1" id="Calque_1" xmlns="&ns_svg;" xmlns:xlink="&ns_xlink;" width="360" height="360" viewBox="0 0 360 360"
	 overflow="visible" enable-background="new 0 0 360 360" xml:space="preserve">
<g>
	<g>
		<path d="M288,108c-2.315,0-4.604,0.12-6.863,0.333H72c-39.765,0-72,32.161-72,71.834C0,219.839,32.235,252,72,252h216v-0.333
			c39.765,0,72-32.161,72-71.834C360,140.161,327.765,108,288,108z M54,198c0-19.882,16.118-36,36-36s36,16.118,36,36H54z M234,198
			c0-19.882,16.118-36,36-36s36,16.118,36,36H234z"/>
	</g>
</g>
<g>
	<g>
		<path d="M180,0c-49.706,0-90,40.294-90,90h180C270,40.294,229.705,0,180,0z"/>
	</g>
</g>
<g>
	<g>
		<path d="M180,360c49.706,0,90-40.294,90-90H90C90,319.705,130.295,360,180,360z"/>
	</g>
</g>
</svg>
